{
    "_comment": "Use a Service Provider login/password, not a Top-Level",
    "_comment2": "Be careful when changing the values below in this file",
    "_comment3": "Make sure user logins are unique, otherwise creation will fail",
    "_comment4": "Make sure your Service Provider assign IPTC automatically, otherwise you'll have to do it manually",
    "_comment5": "The manual stuff you will have to do are: Dialprefix, PSTN number, Devices",
    
    "admin_cred": {
        "url": "https://<your_path_to_mytelephony_here>/restletrouter",
        "login": "<your_service_provider_admin_login_here>",
        "password": "<your_service_provider_admin_login_here>",
        "domain": "<your_service_provider_domain_name_here>"
    },

    "enterprise_payload": {
        "fullName": "Enterprise00",
        "maxIVRConnections": "10",
        "languages": [
            "en"
        ],    
        "countryCode": "33",
        "limitation": "None",
        "operatorPrefix": "0",
        "internalDialplan": [
            {
                "startsBy": "2",
                "length": "3"
            },
            {
                "startsBy": "3",
                "length": "3"
            },
            {
                "startsBy": "4",
                "length": "3"
            },
            {
                "startsBy": "5",
                "length": "3"
            },
            {
                "startsBy": "6",
                "length": "3"
            },
            {
                "startsBy": "7",
                "length": "3"
            },
            {
                "startsBy": "8",
                "length": "3"
            }
        ]
    },
    "site_payload": [
        {
            "name": "Paris"
        },
        {
            "name": "Rome"
        },
        {
            "name": "London"
        }
    ],
    "device_payload": {
        "label": "Yealink T48s",
        "macAddress": "001122334455",
        "deviceModel": "v1/telephony/Enterprise/5409417884632484638/DeviceModel/185"
    },
    "pstn_range": {
        "label": "SDA_Enterprise00",
        "rangeStart": "+33999999900",
        "rangeEnd": "+33999999910",
        "ownerAdmtiveDomain": "",
        "countryCode": "33"
    },
    "pilot_nb_payload": {
        "pilotNumber": "+33999999900",
        "receptionist": "201"
    },
    "user_payload": [
        {
            "iUser": {
                "firstName": "User",
                "lastName": "201",
                "emails": "login1@longemail.com",
                "login": "login1@longemail.com",
                "password": "90201"
            },
            "addressNumber": "201"
        },
        {
            "iUser": {
                "firstName": "User",
                "lastName": "202",
                "emails": "login2@longemail.com",
                "login": "login2@longemail.com",
                "password": "90202"
            },
            "addressNumber": "202"
        },
        {
            "iUser": {
                "firstName": "User",
                "lastName": "203",
                "emails": "login3@longemail.com",
                "login": "login3@longemail.com",
                "password": "90203"
            },
            "addressNumber": "203"
        }
    ],
    "admin_payload": {
        "hasMyTelephonyAccess": true,
        "login": "mylogin",
        "email": "myemail@email.com",
        "password": "acomplexpass2020",
        "firstName": "myFirstName",
        "lastName": "myLastName",
        "appLanguage": "en"
    },

    "department_payload": [
        {
            "name": "Support"
        },
        {
            "name": "Sales"
        },
        {
            "name": "Test"
        },
        {
            "name": "Management"
        }
    ],
    "sub_department_payload": [
        {
            "name": "DE",
            "ownerDepartment": ""
        },
        {
            "name": "EN",
            "ownerDepartment": ""
        },
        {
            "name": "FR",
            "ownerDepartment": ""
        },
        {
            "name": "UK",
            "ownerDepartment": ""
        }
    ],
    "group_payload": [
        {
            "addressNumber": "301",
            "isVoiceMailNoMessage": "true",
            "label": "Group 301",
            "ringPattern": "cyclic"
        },
        {
            "addressNumber": "302",
            "allowMembersEditFwd": "true",
            "isVoiceMailNoMessage": "true",
            "label": "Group 302",
            "ringPattern": "unisson"
        },
        {
            "addressNumber": "303",
            "allowMembersEditFwd": "true",
            "isVoiceMailNoMessage": "true",
            "label": "Group 303",
            "ringPattern": "oldestIdle"
        }
    ],
    "group_members": {
        "members": [
            {
                "restUri": ""
            },
            {
                "restUri": ""
            },
            {
                "restUri": ""
            }
        ]
    },
    "voicemail_payload": {
        "label": "Voicemail",
        "addressNumber": "555",
        "isDefaultByServiceType": "true"
    },
    "conference_payload": {
        "label": "Conference",
        "addressNumber": "559",
        "ivrName": "Conference",
        "alias": "IVRService"
    },
    "fwd_na_payload": {
        "label": "NoAnswer",
        "forwardType": "NA",
        "filter": "A",
        "destination": "ENT_VM",
        "noAnswerForwardingDelay": "30000",
        "allowDisableOnChildren": "true",
        "applyToGroup": "false",
        "activated": "true"
    },
    "fwd_bu_payload": {
        "label": "OnBusy",
        "forwardType": "OB",
        "filter": "A",
        "destination": "ENT_VM",
        "noAnswerForwardingDelay": "5000",
        "applyToGroup": "false",
        "allowDisableOnChildren": "true",
        "activated": "true"
    },
    "fwd_unr_payload": {
        "label": "OnUnreachable",
        "forwardType": "UR",
        "filter": "A",
        "destination": "ENT_VM",
        "noAnswerForwardingDelay": "5000",
        "applyToGroup": "false",
        "allowDisableOnChildren": "false",
        "activated": "true"
    },
    "acd_payload": [
        {
            "addressNumber": "500",
            "allowMembersEditFwd": "true",
            "label": "ACD Group 500",
            "ringPattern": "oldestIdle"
        },
        {
            "addressNumber": "501",
            "allowMembersEditFwd": "true",
            "label": "ACD Group 501",
            "ringPattern": "cyclic"
        },
        {
            "addressNumber": "502",
            "allowMembersEditFwd": "true",
            "label": "ACD Group 502",
            "ringPattern": "unisson"
        }
    ],
    "acd_members": {
        "members": [
            {
                "restUri": "v1/telephony/Enterprise/7636241288990026161/Extension/3507205238937054944"
            },
            {
                "restUri": "v1/telephony/Enterprise/7636241288990026161/Extension/1804430955914959800"
            },
            {
                "restUri": "v1/telephony/Enterprise/7636241288990026161/Extension/6671035723682096819"
            }
        ]
    },
    "payload_aa": {
        "addressNumber": "400",
        "ivrName": "Welcome_Attendant"
    },
    "barring_payload": {
        "actionOnMatching": "rejectTheCall",
        "applyToSMS": false,
        "applyToVoiceCall": true,
        "label": "CB_NOEXT",
        "name": "CBNOEXT"
    },
    "enterprise_extra": {
        "assignedTo": ""
    }
}
